[api-updater (non-obsolete-error-filter)] 10/18/2021 6:45:46 PM : Starting D:/Unity/2020.3.17f1/Editor/Data/Tools/ScriptUpdater/APIUpdater.NonObsoleteApiUpdaterDetector.exe
[api-updater (non-obsolete-error-filter)] 
----------------------------------
jit/startup time      : 1070.1622ms
moved types parse time: 51ms
candidates parse time : 1ms
C# parse time         : 872ms
candidates check time : 30ms
console write time    : 17ms

[api-updater (non-obsolete-error-filter)] 10/18/2021 6:51:05 PM : Starting D:/Unity/2020.3.17f1/Editor/Data/Tools/ScriptUpdater/APIUpdater.NonObsoleteApiUpdaterDetector.exe
[api-updater (non-obsolete-error-filter)] 
----------------------------------
jit/startup time      : 94.7459ms
moved types parse time: 53ms
candidates parse time : 1ms
C# parse time         : 194ms
candidates check time : 28ms
console write time    : 0ms

[api-updater (non-obsolete-error-filter)] 10/18/2021 6:55:41 PM : Starting D:/Unity/2020.3.17f1/Editor/Data/Tools/ScriptUpdater/APIUpdater.NonObsoleteApiUpdaterDetector.exe
[api-updater (non-obsolete-error-filter)] 
----------------------------------
jit/startup time      : 386.2328ms
moved types parse time: 50ms
candidates parse time : 1ms
C# parse time         : 186ms
candidates check time : 27ms
console write time    : 0ms

[api-updater (non-obsolete-error-filter)] 10/26/2021 8:57:02 AM : Starting D:/Unity/2020.3.17f1/Editor/Data/Tools/ScriptUpdater/APIUpdater.NonObsoleteApiUpdaterDetector.exe
[api-updater (non-obsolete-error-filter)] 
----------------------------------
jit/startup time      : 850.377ms
moved types parse time: 66ms
candidates parse time : 1ms
C# parse time         : 668ms
candidates check time : 24ms
console write time    : 13ms

[api-updater (non-obsolete-error-filter)] 10/26/2021 9:00:08 AM : Starting D:/Unity/2020.3.17f1/Editor/Data/Tools/ScriptUpdater/APIUpdater.NonObsoleteApiUpdaterDetector.exe
[api-updater (non-obsolete-error-filter)] 
----------------------------------
jit/startup time      : 95.7145ms
moved types parse time: 52ms
candidates parse time : 1ms
C# parse time         : 165ms
candidates check time : 23ms
console write time    : 0ms

[api-updater (non-obsolete-error-filter)] 10/26/2021 9:05:00 AM : Starting D:/Unity/2020.3.17f1/Editor/Data/Tools/ScriptUpdater/APIUpdater.NonObsoleteApiUpdaterDetector.exe
[api-updater (non-obsolete-error-filter)] 
----------------------------------
jit/startup time      : 82.8088ms
moved types parse time: 52ms
candidates parse time : 1ms
C# parse time         : 168ms
candidates check time : 24ms
console write time    : 0ms

[api-updater (non-obsolete-error-filter)] 10/26/2021 9:36:08 AM : Starting D:/Unity/2020.3.17f1/Editor/Data/Tools/ScriptUpdater/APIUpdater.NonObsoleteApiUpdaterDetector.exe
[api-updater (non-obsolete-error-filter)] 
----------------------------------
jit/startup time      : 693.3618ms
moved types parse time: 67ms
candidates parse time : 1ms
C# parse time         : 422ms
candidates check time : 40ms
console write time    : 0ms

[api-updater (non-obsolete-error-filter)] 10/26/2021 9:36:37 AM : Starting D:/Unity/2020.3.17f1/Editor/Data/Tools/ScriptUpdater/APIUpdater.NonObsoleteApiUpdaterDetector.exe
[api-updater (non-obsolete-error-filter)] 
----------------------------------
jit/startup time      : 86.7944ms
moved types parse time: 52ms
candidates parse time : 1ms
C# parse time         : 168ms
candidates check time : 25ms
console write time    : 0ms

[api-updater (non-obsolete-error-filter)] 10/26/2021 10:06:14 AM : Starting D:/Unity/2020.3.17f1/Editor/Data/Tools/ScriptUpdater/APIUpdater.NonObsoleteApiUpdaterDetector.exe
[api-updater (non-obsolete-error-filter)] 
----------------------------------
jit/startup time      : 187.518ms
moved types parse time: 48ms
candidates parse time : 1ms
C# parse time         : 343ms
candidates check time : 26ms
console write time    : 0ms

[api-updater (non-obsolete-error-filter)] 10/26/2021 10:07:12 AM : Starting D:/Unity/2020.3.17f1/Editor/Data/Tools/ScriptUpdater/APIUpdater.NonObsoleteApiUpdaterDetector.exe
[api-updater (non-obsolete-error-filter)] 
----------------------------------
jit/startup time      : 83.7762ms
moved types parse time: 50ms
candidates parse time : 1ms
C# parse time         : 183ms
candidates check time : 26ms
console write time    : 0ms

[api-updater (non-obsolete-error-filter)] 10/26/2021 10:08:04 AM : Starting D:/Unity/2020.3.17f1/Editor/Data/Tools/ScriptUpdater/APIUpdater.NonObsoleteApiUpdaterDetector.exe
[api-updater (non-obsolete-error-filter)] 
----------------------------------
jit/startup time      : 81.7805ms
moved types parse time: 51ms
candidates parse time : 1ms
C# parse time         : 178ms
candidates check time : 27ms
console write time    : 0ms

[api-updater (non-obsolete-error-filter)] 10/26/2021 10:08:44 AM : Starting D:/Unity/2020.3.17f1/Editor/Data/Tools/ScriptUpdater/APIUpdater.NonObsoleteApiUpdaterDetector.exe
[api-updater (non-obsolete-error-filter)] 
----------------------------------
jit/startup time      : 80.8121ms
moved types parse time: 54ms
candidates parse time : 1ms
C# parse time         : 174ms
candidates check time : 27ms
console write time    : 0ms

